Alexandros Karagiannis - Assignment 7 Solution
…
my_url <- "http://datafiles.ritsokiguess.site/self-esteem.csv"
self_esteem <- read_csv(my_url)

Rows: 34 Columns: 8
── Column specification ────────────────────────────────────────────────────────
Delimiter: ","
chr (1): regime
dbl (7): subject, wl1, wl2, wl3, se1, se2, se3

ℹ Use `spec()` to retrieve the full column specification for this data.
ℹ Specify the column types or set `show_col_types = FALSE` to quiet this message.

self_esteem

# A tibble: 34 × 8
   subject regime    wl1   wl2   wl3   se1   se2   se3
     <dbl> <chr>   <dbl> <dbl> <dbl> <dbl> <dbl> <dbl>
 1       1 Control     4     3     3    14    13    15
 2       2 Control     4     4     3    13    14    17
 3       3 Control     4     3     1    17    12    16
 4       4 Control     3     2     1    11    11    12
 5       5 Control     5     3     2    16    15    14
 6       6 Control     6     5     4    17    18    18
 7       7 Control     6     5     4    17    16    19
 8       8 Control     5     4     1    13    15    15
 9       9 Control     5     4     1    14    14    15
10      10 Control     3     3     2    14    15    13
# ℹ 24 more rows
…
We look at sphericity first, from the Mauchly tests near the bottom. We are first assessing the regime by time interaction, so we strictly need the P-value from the second test (though they are both the same). The P- value of 0.014 is smaller than 0.05, so sphericity fails and we cannot use the type II analysis for anything time-related.

The Huynh-Feldt tests at the bottom. The P-value for the interaction is 0.0099; this is also less than 0.05, so the interaction is significant: the effect of treatment regime depends on time (that is, it is not consistent over time).

self_esteem %>%
  pivot_longer(starts_with("se"),
               names_to = "time",
               values_to = "self_esteem") -> self_esteem_long

self_esteem_long

# A tibble: 102 × 7
   subject regime    wl1   wl2   wl3 time  self_esteem
     <dbl> <chr>   <dbl> <dbl> <dbl> <chr>       <dbl>
 1       1 Control     4     3     3 se1            14
 2       1 Control     4     3     3 se2            13
 3       1 Control     4     3     3 se3            15
 4       2 Control     4     4     3 se1            13
 5       2 Control     4     4     3 se2            14
 6       2 Control     4     4     3 se3            17
 7       3 Control     4     3     1 se1            17
 8       3 Control     4     3     1 se2            12
 9       3 Control     4     3     1 se3            16
10       4 Control     3     2     1 se1            11
# ℹ 92 more rows
…
my_url <- "http://datafiles.ritsokiguess.site/leafshape.csv"
leafshape <- read_csv(my_url)

Rows: 206 Columns: 4
── Column specification ────────────────────────────────────────────────────────
Delimiter: ","
chr (1): location
dbl (3): logwid, logpet, loglen

ℹ Use `spec()` to retrieve the full column specification for this data.
ℹ Specify the column types or set `show_col_types = FALSE` to quiet this message.

leafshape

# A tibble: 206 × 4
   logwid logpet loglen location 
    <dbl>  <dbl>  <dbl> <chr>    
 1  0.908 -1.52    1.91 C America
 2  1.14  -0.943   2.04 C America
 3  0.967 -1.25    2.08 C America
 4  1.33  -0.967   2.18 C America
 5  1.37  -0.832   2.24 C America
 6  1.41  -1.23    2.29 C America
 7  1.41  -0.650   2.42 C America
 8  1.65  -0.680   2.42 C America
 9  1.43  -1.23    2.42 C America
10  1.39  -0.569   2.49 C America
# ℹ 196 more rows
…
