Alexandros Karagiannis - Assignment 8 Solution
…
my_url <- "http://datafiles.ritsokiguess.site/exoplanets.csv"
 planets <- read_csv(my_url)

Rows: 101 Columns: 7
── Column specification ────────────────────────────────────────────────────────
Delimiter: ","
dbl (7): id, mass, period, eccen, log_mass, log_period, sqrt_eccen

ℹ Use `spec()` to retrieve the full column specification for this data.
ℹ Specify the column types or set `show_col_types = FALSE` to quiet this message.

planets

# A tibble: 101 × 7
      id  mass period eccen log_mass log_period sqrt_eccen
   <dbl> <dbl>  <dbl> <dbl>    <dbl>      <dbl>      <dbl>
 1     1 0.12    4.95 0       -2.12        1.60     0.0707
 2     2 0.197   3.97 0       -1.62        1.38     0.0707
 3     3 0.21   44.3  0.34    -1.56        3.79     0.587 
 4     4 0.22   75.8  0.28    -1.51        4.33     0.534 
 5     5 0.23    6.40 0.08    -1.47        1.86     0.292 
 6     6 0.25    3.02 0.02    -1.39        1.11     0.158 
 7     7 0.34    2.98 0.08    -1.08        1.09     0.292 
 8     8 0.4    10.9  0.498   -0.916       2.39     0.709 
 9     9 0.42    3.51 0       -0.868       1.26     0.0707
10    10 0.47    4.23 0       -0.755       1.44     0.0707
# ℹ 91 more rows

Create and save a new data frame that contains the z-score values of only the three variables of interest. Hint: what do the names of your variables of interest have in common?

planets %>%
  select(contains("_")) %>%
  mutate(across(everything(), \(x) scale(x))) -> planets_scaled
planets_scaled

# A tibble: 101 × 3
   log_mass[,1] log_period[,1] sqrt_eccen[,1]
          <dbl>          <dbl>          <dbl>
 1        -2.36         -1.68          -1.85 
 2        -1.93         -1.78          -1.85 
 3        -1.88         -0.653          0.449
 4        -1.84         -0.401          0.212
 5        -1.80         -1.56          -0.865
 6        -1.73         -1.91          -1.46 
 7        -1.46         -1.91          -0.865
 8        -1.32         -1.31           0.991
 9        -1.28         -1.84          -1.85 
10        -1.18         -1.75          -1.85 
# ℹ 91 more rows
…
