Alexandros Karagiannis - Αλέξανδρος Καραγιάννης - Assignment 5 Solution
…
my_url <- "http://datafiles.ritsokiguess.site/teak.csv"
teak <- read_csv(my_url)

Rows: 24 Columns: 4
── Column specification ────────────────────────────────────────────────────────
Delimiter: ","
chr (3): Block, Plant, Root
dbl (1): Height

ℹ Use `spec()` to retrieve the full column specification for this data.
ℹ Specify the column types or set `show_col_types = FALSE` to quiet this message.

teak

# A tibble: 24 × 4
   Block Plant   Root  Height
   <chr> <chr>   <chr>  <dbl>
 1 I     pit     R4      18.2
 2 I     pit     R6      23.6
 3 I     pit     R8      24.8
 4 I     crowbar R4      12.7
 5 I     crowbar R6      15.4
 6 I     crowbar R8      16.8
 7 II    pit     R4      16.2
 8 II    pit     R6      22.7
 9 II    pit     R8      23.4
10 II    crowbar R4      11.9
# ℹ 14 more rows
…
my_url <- "http://datafiles.ritsokiguess.site/rhiz-clover.csv"
clover <- read_csv(my_url)

Rows: 60 Columns: 5
── Column specification ────────────────────────────────────────────────────────
Delimiter: ","
chr (2): comb, strain
dbl (3): weight, nitro, Npg

ℹ Use `spec()` to retrieve the full column specification for this data.
ℹ Specify the column types or set `show_col_types = FALSE` to quiet this message.

clover

# A tibble: 60 × 5
   comb   strain weight nitro   Npg
   <chr>  <chr>   <dbl> <dbl> <dbl>
 1 clover 3DOk1    1.02  31.2  30.6
 2 clover 3DOk1    0.65  23.6  36.3
 3 clover 3DOk1    0.55  14    25.5
 4 clover 3DOk1    0.86  23.1  26.9
 5 clover 3DOk1    0.9   23.4  26  
 6 clover 3DOk5    1.18  59    50  
 7 clover 3DOk5    1.3   36.7  28.2
 8 clover 3DOk5    0.86  38.7  45  
 9 clover 3DOk5    1.62  47.3  29.2
10 clover 3DOk5    0.9   26.1  29  
# ℹ 50 more rows
…
