Alexandros Karagiannis - Αλέξανδρος Καραγιάννης - Assignment 6 Solution
…
my_url <- "http://datafiles.ritsokiguess.site/fact-opinion.csv"
survey <- read_csv(my_url)

Rows: 5035 Columns: 2
── Column specification ────────────────────────────────────────────────────────
Delimiter: ","
chr (1): age
dbl (1): correct

ℹ Use `spec()` to retrieve the full column specification for this data.
ℹ Specify the column types or set `show_col_types = FALSE` to quiet this message.

survey

# A tibble: 5,035 × 2
   age   correct
   <chr>   <dbl>
 1 50-65       6
 2 65+         5
 3 28-38       9
 4 65+         8
 5 18-27       9
 6 18-27      10
 7 18-27       7
 8 28-38       5
 9 65+         9
10 28-38      10
# ℹ 5,025 more rows

survey %>% mutate(age = factor(age)) -> survey
survey

# A tibble: 5,035 × 2
   age   correct
   <fct>   <dbl>
 1 50-65       6
 2 65+         5
 3 28-38       9
 4 65+         8
 5 18-27       9
 6 18-27      10
 7 18-27       7
 8 28-38       5
 9 65+         9
10 28-38      10
# ℹ 5,025 more rows
…
my_url <- "http://datafiles.ritsokiguess.site/onions.csv"
onions <- read_csv(my_url)

Rows: 84 Columns: 3
── Column specification ────────────────────────────────────────────────────────
Delimiter: ","
chr (1): location
dbl (2): dens, yield

ℹ Use `spec()` to retrieve the full column specification for this data.
ℹ Specify the column types or set `show_col_types = FALSE` to quiet this message.

onions

# A tibble: 84 × 3
    dens yield location       
   <dbl> <dbl> <chr>          
 1  23.5  223. Purnong Landing
 2  26.2  234. Purnong Landing
 3  27.8  222. Purnong Landing
 4  32.9  222. Purnong Landing
 5  33.3  197. Purnong Landing
 6  36.8  190. Purnong Landing
 7  37.6  211. Purnong Landing
 8  37.6  191. Purnong Landing
 9  41.5  157. Purnong Landing
10  42.7  168. Purnong Landing
# ℹ 74 more rows
…
my_url <- "http://datafiles.ritsokiguess.site/mercer-wheat.csv"
wheat <- read_csv(my_url)

Rows: 500 Columns: 4
── Column specification ────────────────────────────────────────────────────────
Delimiter: ","
chr (2): row, col
dbl (2): grain, straw

ℹ Use `spec()` to retrieve the full column specification for this data.
ℹ Specify the column types or set `show_col_types = FALSE` to quiet this message.

wheat

# A tibble: 500 × 4
   row   col   grain straw
   <chr> <chr> <dbl> <dbl>
 1 E     J      3.63  6.37
 2 D     J      4.07  6.24
 3 C     J      4.51  7.05
 4 B     J      3.9   6.91
 5 A     J      3.63  5.93
 6 E     J      3.16  5.59
 7 D     J      3.18  5.32
 8 C     J      3.42  5.52
 9 B     J      3.97  6.03
10 A     J      3.4   5.66
# ℹ 490 more rows
…
